%YAML 1.1
%TAG !u! tag:unity3d.com,2011:
--- !u!114 &11400000
MonoBehaviour:
  m_ObjectHideFlags: 0
  m_CorrespondingSourceObject: {fileID: 0}
  m_PrefabInstance: {fileID: 0}
  m_PrefabAsset: {fileID: 0}
  m_GameObject: {fileID: 0}
  m_Enabled: 1
  m_EditorHideFlags: 0
  m_Script: {fileID: 11500000, guid: f9cf5b857003ee740b25fe3a12f13b5e, type: 3}
  m_Name: C4390827-A008-4C74-8D8C-3A852FB9101F
  m_EditorClassIdentifier: 
  objectName: clock_winding
  id: 3275534650
  guid: C4390827-A008-4C74-8D8C-3A852FB9101F
